{
    "welcomeTpl" : "costum.views.custom.home.lesPepitesEss",
    "sourceKey" : true,
    "slug" : "lesPepitesEss",
    "favicon" : "/ico/lesPepitesEss/favicon.ico",
    "metaImg" : "/images/lesPepitesEss/banner.png",
    "typeObj" : {
        "organizations" : {
            "add" : true
        },
        "projects" : {
            "add" : true
        },
        "events" : {
            "add" : true
        },
        "citoyens" : {
            "add" : true
        }
    },
    "htmlConstruct" : {
        "appRendering" : "vertical",
        "redirect" : {
            "logged" : "search",
            "unlogged" : "welcome"
        },
        "adminPanel" : {
            "add" : true,
            "statistic" : true,
            "directory" : true,
            "reference" : {
                "initType" : [ 
                    "organizations"
                ]
            }
        },
        "header" : {
            "menuTop" : {
                "navLeft" : {
                    "logo" : {
                        "height" : 40
                    },
                    "searchBar" : true
                },
                "navRight" : {
                    "connected" : {
                        "dropdownUser" : {
                            "languages" : true,
                            "statistics" : false,
                            "documentation" : false,
                            "donate" : false,
                            "admin" : true,
                            "settings" : false,
                            "logout" : true
                        },
                        "userProfil" : {
                            "img" : true,
                            "name" : true
                        },
                        "networkFloop" : true,
                        "notifications" : true,
                        "dda" : false,
                        "chat" : true,
                        "home" : false,
                        "app" : false
                    },
                    "disconnected" : {
                        "languages" : true,
                        "login" : true
                    }
                }
            }
        },
        "directory" : {
            "results" : {
                "organizations" : {
                    "defaultImg" : "/images/lesPepitesEss/default_directory.png"
                },
                "projects" : {
                    "defaultImg" : "/images/lesPepitesEss/default_directory.png"
                },
                "events" : {
                    "defaultImg" : "/images/lesPepitesEss/default_directory.png"
                }
            }
        },
        "element" : {
            "initView" : "detail",
            "menuLeft" : {
                "detail" : true,
                "gallery" : true,
                "events" : true,
                "projects" : true,
                "community" : true
            },
            "menuTop" : {
                "news" : true,
                "params" : {
                    "history" : true,
                    "settings" : true,
                    "mindMap" : true,
                    "slug" : true,
                    "delete" : true
                }
            }
        },
        "menuBottom" : {
            "add" : true
        }
    },
    "css" : {
        "loader" : {
            "background" : "#497614",
            "ring1" : {
                "color" : "white",
                "height" : 360,
                "width" : 360,
                "left" : -15,
                "borderWidth" : 4,
                "top" : -35
            },
            "ring2" : {
                "color" : "#80cc28",
                "height" : 350,
                "width" : 350,
                "left" : -10,
                "borderWidth" : 5,
                "top" : -30
            }
        },
        "progress" : {
            "value" : {
                "background" : "#497614"
            },
            "bar" : {
                "background" : "#fff"
            }
        },
        "menuTop" : {
            "background" : "white",
            "button" : {
                "paddingTop" : 0,
                "fontSize" : 30,
                "color" : "#497614"
            },
            "badge" : {
                "background" : "#497614",
                "border" : "1px solid white"
            },
            "scopeBtn" : {
                "display" : "none"
            },
            "filterBtn" : {
                "display" : "none"
            },
            "connectBtn" : {
                "background" : "#497614",
                "color" : "white",
                "fontSize" : 18,
                "borderRadius" : 10,
                "padding" : "8px 15px"
            }
        },
        "menuApp" : {
            "top" : "58",
            "background" : "#497614",
            "button" : {
                "fontSize" : 25,
                "color" : "#fff",
                "hover" : {
                    "borderBottom" : "2px solid #fff"
                }
            }
        },
        "button" : {
            "footer" : {
                "add" : {
                    "bottom" : 25,
                    "background" : "transparent",
                    "color" : "white"
                },
                "toolbarAdds" : {
                    "bottom" : 30
                }
            }
        },
        "color" : {
            "green" : "#497614",
            "dark" : "#444"
        }
    },
    "app" : {
        "#search" : {
            "subdomainName" : "Les pépites",
            "icon" : "connectdevelop",
            "filters" : {
                "types" : [ 
                    "NGO", 
                    "Group", 
                    "GovernmentOrganization", 
                    "LocalBusiness", 
                    "projects"
                ]
            }
        },
        "#agenda" : {
            "subdomainName" : "Agenda"
        },
        "#live" : {
            "subdomainName" : "Actualité",
            "slug" : "lesPepitesEss",
            "formCreate" : false,
            "useFilter" : false
        }
    },
    "filters" : {
        "sourceKey" : true,
        "searchTypeGS" : [ 
            "organizations", 
            "projects"
        ]
    }
}