{
    "host":"https://www.pacte-transition.org",
    "slug" : "siteDuPactePourLaTransition",
    "welcomeTpl" : "costum.views.custom.siteDuPactePourLaTransition.home",
    "sourceKey" : true,
    "favicon" : "/ico/pactePourLaTransition/favicon.ico",
    "metaImg" : "/images/pactePourLaTransition/banner_ctc.png",
    "metaTitle" : "Pacte pour la transition",
    "logoMin" : "/images/pactePourLaTransition/logo-min.png",
    "admin" : {
        "email" : "pacte@transition-citoyenne.org"
    },
    "js" : {
        "urls" : [ 
            "index.js"
        ]
    },
    "css" : {
        "urls" : [ 
            "index.css"
        ],
        "font" : {
            "url" : "/font/pactePourLaTransition/fengardoneue_regular-webfont.ttf"
        },
        "loader" : {
            "background" : "white",
            "ring1" : {
                "color" : "#5b2649",
                "height" : 360,
                "width" : 360,
                "left" : -15,
                "borderWidth" : 4,
                "top" : -35
            },
            "ring2" : {
                "color" : "#fea621",
                "height" : 350,
                "width" : 350,
                "left" : -10,
                "borderWidth" : 5,
                "top" : -30
            }
        },
        "progress" : {
            "value" : {
                "background" : "#5b2649"
            },
            "bar" : {
                "background" : "#fff"
            }
        },
        "menuTop" : {
            "background" : "white",
            "boxShadow" : "1px 1px 3px #ddd",
            "logo" : {
                "height" : 70
            },
            "app" : {
                "paddingLeft" : "30px",
                "button" : {
                    "fontSize" : 24,
                    "fontWeight" : 800,
                    "paddingBottom" : "0px",
                    "marginLeft" : "10px",
                    "textTransform" : "capitalize",
                    "color" : "#5b2649"
                }
            },
            "button" : {
                "paddingTop" : 0,
                "fontSize" : 30,
                "color" : "#5b2649"
            },
            "scopeBtn" : {
                "color" : "#5b2649"
            },
            "filterBtn" : {
                "color" : "#5b2649"
            },
            "badge" : {
                "background" : "#5b2649",
                "border" : "1px solid white"
            },
            "connectBtn" : {
                "background" : "#5b2649",
                "color" : "white",
                "fontSize" : 18,
                "borderRadius" : 10,
                "padding" : "8px 15px"
            }
        },
        "menuApp" : {
            "background" : "#5b2649",
            "button" : {
                "fontSize" : 25,
                "color" : "#fff",
                "hover" : {
                    "borderBottom" : "2px solid #fff"
                }
            }
        },
        "button" : {
            "footer" : {
                "add" : {
                    "bottom" : 60,
                    "background" : "transparent",
                    "color" : "white"
                },
                "toolbarAdds" : {
                    "bottom" : 50
                }
            }
        },
        "color" : {
            "purple" : "#5b2649",
            "blue" : "#0091c6",
            "orange" : "#fea621"
        }
    },
    "htmlConstruct" : {
        "appRendering" : "horizontal",
        "header" : {
            "menuTop" : {
                "navLeft" : {
                    "logo" : {
                        "height" : 70
                    },
                    "searchBar" : false,
                    "useFilter" : {
                        "scopeFilter" : false,
                        "showFilter" : false
                    }
                },
                "navRight" : {
                    "connected" : {
                        "app" : {
                            "label" : true,
                            "icon" : false,
                            "tooltips" : false
                        },
                        "dropdownUser" : {
                            "languages" : false,
                            "statistics" : false,
                            "documentation" : false,
                            "donate" : false,
                            "admin" : true,
                            "settings" : false,
                            "logout" : true
                        },
                        "userProfil" : {
                            "img" : false,
                            "name" : false
                        },
                        "networkFloop" : false,
                        "notifications" : false,
                        "dda" : false,
                        "chat" : false,
                        "home" : false
                    },
                    "disconnected" : {
                        "app" : {
                            "label" : true,
                            "icon" : false,
                            "tooltips" : false
                        },
                        "languages" : false,
                        "login" : false
                    }
                }
            }
        },
        "subMenu" : false,
        "menuBottom" : {
            "add" : false,
            "donate" : false
        },
        "adminPanel" : {
            "add" : true,
            "statistic" : true,
            "directory" : true,
            "community" : true,
            "groupe" : {
                "label" : "Collectifs locaux",
                "costumAdmin" : true,
                "class" : "text-dark",
                "id" : "btn-open-costum",
                "href" : "javascript:;",
                "icon" : "group",
                "dataHref" : "pacte/groupadmin"
            },
            "reference" : {
                "initType" : [ 
                    "organizations"
                ]
            }
        },
        "directoryViewMode" : "block",
        "directory" : {
            "filters" : {
                "tagsList" : true
            },
            "header" : false,
            "results" : {
                "proposals" : {
                    "defaultImg" : "/images/pactePourLaTransition/default_directory.png"
                },
                "organizations" : {
                    "defaultImg" : "/images/pactePourLaTransition/default_directory.png"
                }
            },
            "footer" : {
                "add" : false
            }
        },
        "element" : {
            "initView" : "pacte",
            "menuTop" : {
                "cospace" : true,
                "news" : true,
                "community" : true,
                "detail" : true,
                "params" : {
                    "history" : true,
                    "slug" : true,
                    "delete" : true
                }
            },
            "menuLeft" : {
                "about" : true,
                "community" : true
            }
        },
        "footer" : {
            "url" : "costum.views.custom.siteDuPactePourLaTransition.footer"
        },
        "redirect" : {
            "logged" : "welcome",
            "unlogged" : "welcome"
        }
    },
    "app" : {
        "#pacte" : {
            "hash" : "#app.view",
            "icon" : "info-circle",
            "urlExtra" : "/page/pacte/url/costum.views.custom.siteDuPactePourLaTransition.pacte",
            "useHeader" : true,
            "useFooter" : true,
            "useFilter" : false,
            "inMenu" : true,
            "subdomainName" : "Le Pacte"
        },
        "#mesures" : {
            "hash" : "#app.search",
            "icon" : "gavel",
            "urlExtra" : "/page/mesures",
            "useHeader" : true,
            "useFilter" : false,
            "useFooter" : true,
            "inMenu" : true,
            "subdomainName" : "Mesures",
            "filters" : {
                "types" : [ 
                    "poi"
                ],
                "category" : "measure"
            },
            "searchObject" : {
                "indexStep" : "35"
            },
            "placeholderMainSearch" : "what are you looking for ?"
        },
        "#search" : {
            "icon" : "group",
            "subdomainName" : "Les collectifs locaux",
            "inMenu" : false,
            "open" : false,
            "filters" : {
                "types" : [ 
                    "Group"
                ]
            }
        },
        "#sengager" : {
            "hash" : "#app.view",
            "icon" : "hands",
            "useFooter" : true,
            "urlExtra" : "/page/sengager/url/costum.views.custom.siteDuPactePourLaTransition.sengager",
            "useHeader" : true,
            "useFilter" : false,
            "inMenu" : true,
            "open" : true,
            "subdomainName" : "S'engager"
        },
        "#actualites" : {
            "hash" : "#app.search",
            "icon" : "newspaper-o",
            "urlExtra" : "/page/actualites",
            "useHeader" : true,
            "useFilter" : false,
            "useFooter" : true,
            "inMenu" : false,
            "subdomainName" : "Toutes l'actualités",
            "filters" : {
                "types" : [ 
                    "poi"
                ],
                "category" : "article"
            },
            "placeholderMainSearch" : "what are you looking for ?"
        }
    },
    "modules" : {
        "dda" : {
            "name" : "PACTE",
            "icon" : "fa-handshake-o",
            "documentTitle" : "Contrats signés",
            "addDocumentBtn" : "Ajouter un Contrat",
            "noDocuments" : "Aucun Contrat signé",
            "hide" : {
                "menuProposals" : 1,
                "menuActions" : 1,
                "menuRoomProps" : 1
            },
            "tpls" : {
                "home" : "dda.views.custom.siteDuPactePourLaTransition.home"
            }
        }
    },
    "typeObj" : {
        "citoyens" : {
            "color" : "yellow-k",
            "name" : "Personne",
            "add" : true,
            "createLabel" : "Inviter vos amis"
        },
        "room" : {
            "color" : "purple",
            "createLabel" : "Ajouter un PACTE",
            "dynFormCostum" : {
                "onload" : {
                    "actions" : {
                        "html" : {
                            "modal-title" : "<i class='fa fa-user'></i>Ajouter un candidat",
                            "infocustom" : "<br/>Un Pacte pour la Transition est rattaché à un candidat à qui allez associer les niveaux d'engagment qu'ils vous aura communiqué",
                            "nametext>label" : "<i class='fa fa-chevron-down'></i> Nom du Candidat"
                        },
                        "hide" : {
                            "rolestags" : 1
                        }
                    }
                }
            }
        },
        "article" : {
            "color" : "blue",
            "name" : "Actualités",
            "add" : "onlyAdmin",
            "createLabel" : "Ecrire un article",
            "icon" : "newspaper-o",
            "sameAs" : "poi",
            "formType" : "article",
            "formParent" : "poi",
            "dynFormCostum" : {
                "beforeBuild" : {
                    "properties" : {
                        "info" : {
                            "html" : "<p class='text-blue'>Le pacte c'est de l'actualité aussi<br/>Écrivez les actualités et mettez-les à la une pour qu'il apparaisse sur votre page d'accueil<hr></p>"
                        },
                        "name" : {
                            "label" : "Titre de l'actualités",
                            "placeholder" : "Nom de l'actualités"
                        },
                        "shortDescription" : {
                            "inputType" : "textarea",
                            "order" : 5,
                            "label" : "En-tete de l'actualité",
                            "rules" : {
                                "maxlength" : 200
                            }
                        },
                        "parent" : {
                            "label" : "Auteur(s)"
                        },
                        "description" : {
                            "inputType" : "textarea",
                            "markdown" : true,
                            "label" : "Texte de l'actualité"
                        },
                        "rank" : {
                            "inputType" : "checkboxSimple",
                            "label" : "Mettre à la Une",
                            "order" : 8,
                            "params" : {
                                "onText" : "Oui",
                                "offText" : "Non",
                                "onLabel" : "Actu à la Une",
                                "offLabel" : "Actu normal",
                                "labelText" : "Mettre l'actu à la Une"
                            },
                            "checked" : false
                        }
                    }
                },
                "onload" : {
                    "actions" : {
                        "setTitle" : "Ajouter une actualité",
                        "presetValue" : {
                            "type" : "article"
                        },
                        "hide" : {
                            "typeselect" : 1,
                            "urlsarray" : 1,
                            "breadcrumbcustom" : 1
                        }
                    }
                }
            }
        },
        "poi" : {
            "color" : "purple",
            "name" : "Mesure",
            "add" : "onlyAdmin",
            "createLabel" : "Créer une mesure",
            "icon" : "gavel",
            "dynFormCostum" : {
                "beforeBuild" : {
                    "properties" : {
                        "name" : {
                            "label" : "Enoncé de la mesure",
                            "placeholder" : "Nom de la mesure"
                        },
                        "parent" : {
                            "label" : "Qui porte la mesure"
                        },
                        "shortDescription" : {
                            "inputType" : "textarea",
                            "label" : "En-tete de la mesure",
                            "order" : 5,
                            "rules" : {
                                "maxlength" : 200
                            }
                        },
                        "documentation" : {
                            "inputType" : "uploader",
                            "label" : "Ajouter un document téléchargeable",
                            "showUploadBtn" : false,
                            "docType" : "file",
                            "itemLimit" : 1,
                            "contentKey" : "file",
                            "order" : 8,
                            "domElement" : "documentationFile",
                            "placeholder" : "Le pdf de la mesure",
                            "afterUploadComplete" : null,
                            "template" : "qq-template-manual-trigger",
                            "filetypes" : [ 
                                "pdf"
                            ]
                        },
                        "description" : {
                            "inputType" : "textarea",
                            "markdown" : true,
                            "label" : "Description de la mesure"
                        },
                        "level" : {
                            "label" : "Crée un niveau",
                            "inputType" : "properties",
                            "values" : "",
                            "labelKey" : "Nom du niveau",
                            "labelValue" : "Description du niveau"
                        }
                    }
                },
                "onload" : {
                    "actions" : {
                        "setTitle" : "Créer une mesure",
                        "html" : {
                            "infocustom" : "<br/>Remplir les mesures que les groupes locaux pourront ajouter à leur pacte"
                        },
                        "presetValue" : {
                            "type" : "measure"
                        },
                        "hide" : {
                            "locationlocation" : 1,
                            "breadcrumbcustom" : 1,
                            "urlsarray" : 1
                        }
                    }
                }
            }
        },
        "organizations" : {
            "color" : "azure",
            "name" : "Groupe",
            "add" : true,
            "createLabel" : "Créer un groupe sur le pacte",
            "dynFormCostum" : {
                "beforeBuild" : {
                    "properties" : {
                        "links" : {
                            "inputType" : "finder",
                            "label" : "Ajouter les autres membres de votre groupe",
                            "multiple" : true,
                            "invite" : true,
                            "lengthMin" : 3,
                            "type" : [ 
                                "persons"
                            ],
                            "openSearch" : true
                        }
                    }
                },
                "onload" : {
                    "actions" : {
                        "setTitle" : "Créer votre groupe",
                        "html" : {
                            "nametext>label" : "Créer votre groupe",
                            "infocustom" : "<br/>Dans un premier temps, veuillez inviter au moins une personne pour pouvoir former un groupe local valable sur un territoire"
                        },
                        "presetValue" : {
                            "type" : "Group",
                            "role" : "admin"
                        },
                        "hide" : {
                            "typeselect" : 1,
                            "roleselect" : 1,
                            "urlsarray" : 1
                        },
                        "required" : {
                            "locality" : 1
                        }
                    }
                }
            }
        },
        "action" : {
            "color" : "turq",
            "name" : "Contrat",
            "add" : true,
            "createLabel" : "Créer un contrat",
            "dynFormCostum" : {
                "beforeBuild" : {
                    "properties" : {
                        "measures" : {
                            "inputType" : "finder",
                            "label" : "Ajouter une mesure",
                            "multiple" : true,
                            "lengthMin" : 1,
                            "search" : {
                                "category" : "measure",
                                "sourceKey" : "siteDuPactePourLaTransition",
                                "filterBy" : "level"
                            },
                            "initType" : [ 
                                "poi"
                            ],
                            "openSearch" : true
                        }
                    }
                }
            }
        }
    },
    "filters" : {
        "sourceKey" : true
    },
    "searchObject" : {
        "indexStep" : 35,
        "sortBy" : [ 
            "name"
        ]
    },
    "json" : {
        "tags" : "tags"
    }
}